<svg width="64px" height="64px" viewBox="0 0 64 64" version="1.1" xmlns="http://www.w3.org/2000/svg" xmlns:xlink="http://www.w3.org/1999/xlink">
    <g class="icon-close-pane" fill="#E3E8EC">
        <path d="M40.7162702,56.973001 L4.56767992,56.973001 L4.56767992,7.02699896 L40.71616,7.02699896 C41.4250855,7.02699896 41.9998899,6.34924094 41.9998899,5.51336967 C41.9998899,4.67762821 41.4247551,4 40.71616,4 L3.28395007,4 C2.57491452,4 2,4.67775802 2,5.51336967 L2,58.4863707 C2,59.3221122 2.57491452,60 3.28395007,60 L40.7162702,60 C41.4251956,60 42,59.3219823 42,58.4863707 C42,57.6507591 41.4250855,56.973001 40.7162702,56.973001 Z" class="scheme-primary-color" fill-rule="nonzero"></path>
        <path d="M61.5433724,30.9157966 L51.9341763,21.4497561 C51.3253395,20.8500813 50.3393046,20.8500813 49.7306014,21.4497561 C49.1217646,22.0486409 49.1217646,23.0206275 49.7306014,23.6201706 L56.6794946,30.4660734 L27.558248,30.4660734 C26.697723,30.4660734 26,31.1534284 26,32.0008722 C26,32.8485793 26.6978567,33.5359343 27.558248,33.5359343 L56.6794946,33.5359343 L49.7306014,40.379994 C49.1217646,40.9796687 49.1217646,41.9511287 49.7306014,42.5505401 C50.034953,42.8500484 50.4336709,43 50.8325225,43 C51.2311068,43 51.6298248,42.8500484 51.9341763,42.5505401 L61.5433724,33.0859478 C62.1522092,32.486668 62.1522092,31.515208 61.5433724,30.9157966 Z" class="scheme-primary-color"></path>
    </g>
</svg>
